^E:\GITHUB\CPP\MM22\MM22\MM22\MM22\STDAFX.CPP
C:\WINDOWS\GLOBALIZATION\SORTING\SORTDEFAULT.NLS
E:\PLIKI PROGRAMóW (X86)\MICROSOFT VISUAL STUDIO 14.0\VC\BIN\1033\CLUI.DLL
E:\PLIKI PROGRAMóW (X86)\MICROSOFT VISUAL STUDIO 14.0\VC\BIN\MSPDBSRV.EXE
C:\WINDOWS\SYSTEM32\TZRES.DLL
E:\GITHUB\CPP\MM22\MM22\MM22\MM22\STDAFX.H
E:\GITHUB\CPP\MM22\MM22\MM22\MM22\TARGETVER.H
C:\PROGRAM FILES (X86)\WINDOWS KITS\8.1\INCLUDE\SHARED\SDKDDKVER.H
C:\PROGRAM FILES (X86)\WINDOWS KITS\10\INCLUDE\10.0.10150.0\UCRT\STDIO.H
C:\PROGRAM FILES (X86)\WINDOWS KITS\10\INCLUDE\10.0.10150.0\UCRT\CORECRT.H
E:\PLIKI PROGRAMóW (X86)\MICROSOFT VISUAL STUDIO 14.0\VC\INCLUDE\VCRUNTIME.H
E:\PLIKI PROGRAMóW (X86)\MICROSOFT VISUAL STUDIO 14.0\VC\INCLUDE\SAL.H
E:\PLIKI PROGRAMóW (X86)\MICROSOFT VISUAL STUDIO 14.0\VC\INCLUDE\CONCURRENCYSAL.H
E:\PLIKI PROGRAMóW (X86)\MICROSOFT VISUAL STUDIO 14.0\VC\INCLUDE\VADEFS.H
C:\PROGRAM FILES (X86)\WINDOWS KITS\10\INCLUDE\10.0.10150.0\UCRT\CORECRT_WSTDIO.H
C:\PROGRAM FILES (X86)\WINDOWS KITS\10\INCLUDE\10.0.10150.0\UCRT\CORECRT_STDIO_CONFIG.H
C:\PROGRAM FILES (X86)\WINDOWS KITS\10\INCLUDE\10.0.10150.0\UCRT\TCHAR.H
C:\PROGRAM FILES (X86)\WINDOWS KITS\10\INCLUDE\10.0.10150.0\UCRT\WCHAR.H
C:\PROGRAM FILES (X86)\WINDOWS KITS\10\INCLUDE\10.0.10150.0\UCRT\CORECRT_MEMCPY_S.H
C:\PROGRAM FILES (X86)\WINDOWS KITS\10\INCLUDE\10.0.10150.0\UCRT\ERRNO.H
E:\PLIKI PROGRAMóW (X86)\MICROSOFT VISUAL STUDIO 14.0\VC\INCLUDE\VCRUNTIME_STRING.H
C:\PROGRAM FILES (X86)\WINDOWS KITS\10\INCLUDE\10.0.10150.0\UCRT\CORECRT_WCONIO.H
C:\PROGRAM FILES (X86)\WINDOWS KITS\10\INCLUDE\10.0.10150.0\UCRT\CORECRT_WCTYPE.H
C:\PROGRAM FILES (X86)\WINDOWS KITS\10\INCLUDE\10.0.10150.0\UCRT\CORECRT_WDIRECT.H
C:\PROGRAM FILES (X86)\WINDOWS KITS\10\INCLUDE\10.0.10150.0\UCRT\CORECRT_WIO.H
C:\PROGRAM FILES (X86)\WINDOWS KITS\10\INCLUDE\10.0.10150.0\UCRT\CORECRT_SHARE.H
C:\PROGRAM FILES (X86)\WINDOWS KITS\10\INCLUDE\10.0.10150.0\UCRT\CORECRT_WPROCESS.H
C:\PROGRAM FILES (X86)\WINDOWS KITS\10\INCLUDE\10.0.10150.0\UCRT\CORECRT_WSTDLIB.H
C:\PROGRAM FILES (X86)\WINDOWS KITS\10\INCLUDE\10.0.10150.0\UCRT\CORECRT_WSTRING.H
C:\PROGRAM FILES (X86)\WINDOWS KITS\10\INCLUDE\10.0.10150.0\UCRT\CORECRT_WTIME.H
C:\PROGRAM FILES (X86)\WINDOWS KITS\10\INCLUDE\10.0.10150.0\UCRT\SYS\STAT.H
C:\PROGRAM FILES (X86)\WINDOWS KITS\10\INCLUDE\10.0.10150.0\UCRT\SYS\TYPES.H
^E:\GITHUB\CPP\MM22\MM22\MM22\MM22\MM22.CPP
C:\WINDOWS\GLOBALIZATION\SORTING\SORTDEFAULT.NLS
E:\PLIKI PROGRAMóW (X86)\MICROSOFT VISUAL STUDIO 14.0\VC\BIN\1033\CLUI.DLL
C:\WINDOWS\SYSTEM32\TZRES.DLL
E:\GITHUB\CPP\MM22\MM22\MM22\MM22\DEBUG\MM22.PCH
E:\PLIKI PROGRAMóW (X86)\MICROSOFT VISUAL STUDIO 14.0\VC\INCLUDE\CSTDIO
E:\PLIKI PROGRAMóW (X86)\MICROSOFT VISUAL STUDIO 14.0\VC\INCLUDE\YVALS.H
E:\PLIKI PROGRAMóW (X86)\MICROSOFT VISUAL STUDIO 14.0\VC\INCLUDE\XKEYCHECK.H
E:\PLIKI PROGRAMóW (X86)\MICROSOFT VISUAL STUDIO 14.0\VC\INCLUDE\CRTDEFS.H
E:\PLIKI PROGRAMóW (X86)\MICROSOFT VISUAL STUDIO 14.0\VC\INCLUDE\VCRUNTIME.H
E:\PLIKI PROGRAMóW (X86)\MICROSOFT VISUAL STUDIO 14.0\VC\INCLUDE\USE_ANSI.H
E:\PLIKI PROGRAMóW (X86)\MICROSOFT VISUAL STUDIO 14.0\VC\INCLUDE\IOSTREAM
E:\PLIKI PROGRAMóW (X86)\MICROSOFT VISUAL STUDIO 14.0\VC\INCLUDE\ISTREAM
E:\PLIKI PROGRAMóW (X86)\MICROSOFT VISUAL STUDIO 14.0\VC\INCLUDE\OSTREAM
E:\PLIKI PROGRAMóW (X86)\MICROSOFT VISUAL STUDIO 14.0\VC\INCLUDE\IOS
E:\PLIKI PROGRAMóW (X86)\MICROSOFT VISUAL STUDIO 14.0\VC\INCLUDE\XLOCNUM
E:\PLIKI PROGRAMóW (X86)\MICROSOFT VISUAL STUDIO 14.0\VC\INCLUDE\CLIMITS
E:\PLIKI PROGRAMóW (X86)\MICROSOFT VISUAL STUDIO 14.0\VC\INCLUDE\LIMITS.H
E:\PLIKI PROGRAMóW (X86)\MICROSOFT VISUAL STUDIO 14.0\VC\INCLUDE\CMATH
C:\PROGRAM FILES (X86)\WINDOWS KITS\10\INCLUDE\10.0.10150.0\UCRT\MATH.H
E:\PLIKI PROGRAMóW (X86)\MICROSOFT VISUAL STUDIO 14.0\VC\INCLUDE\XTGMATH.H
E:\PLIKI PROGRAMóW (X86)\MICROSOFT VISUAL STUDIO 14.0\VC\INCLUDE\XTR1COMMON
E:\PLIKI PROGRAMóW (X86)\MICROSOFT VISUAL STUDIO 14.0\VC\INCLUDE\CSTDLIB
C:\PROGRAM FILES (X86)\WINDOWS KITS\10\INCLUDE\10.0.10150.0\UCRT\STDLIB.H
C:\PROGRAM FILES (X86)\WINDOWS KITS\10\INCLUDE\10.0.10150.0\UCRT\CORECRT_MALLOC.H
C:\PROGRAM FILES (X86)\WINDOWS KITS\10\INCLUDE\10.0.10150.0\UCRT\CORECRT_SEARCH.H
C:\PROGRAM FILES (X86)\WINDOWS KITS\10\INCLUDE\10.0.10150.0\UCRT\STDDEF.H
E:\PLIKI PROGRAMóW (X86)\MICROSOFT VISUAL STUDIO 14.0\VC\INCLUDE\STREAMBUF
E:\PLIKI PROGRAMóW (X86)\MICROSOFT VISUAL STUDIO 14.0\VC\INCLUDE\XIOSBASE
E:\PLIKI PROGRAMóW (X86)\MICROSOFT VISUAL STUDIO 14.0\VC\INCLUDE\XLOCALE
E:\PLIKI PROGRAMóW (X86)\MICROSOFT VISUAL STUDIO 14.0\VC\INCLUDE\CSTRING
C:\PROGRAM FILES (X86)\WINDOWS KITS\10\INCLUDE\10.0.10150.0\UCRT\STRING.H
C:\PROGRAM FILES (X86)\WINDOWS KITS\10\INCLUDE\10.0.10150.0\UCRT\CORECRT_MEMORY.H
E:\PLIKI PROGRAMóW (X86)\MICROSOFT VISUAL STUDIO 14.0\VC\INCLUDE\STDEXCEPT
E:\PLIKI PROGRAMóW (X86)\MICROSOFT VISUAL STUDIO 14.0\VC\INCLUDE\EXCEPTION
E:\PLIKI PROGRAMóW (X86)\MICROSOFT VISUAL STUDIO 14.0\VC\INCLUDE\TYPE_TRAITS
E:\PLIKI PROGRAMóW (X86)\MICROSOFT VISUAL STUDIO 14.0\VC\INCLUDE\XSTDDEF
E:\PLIKI PROGRAMóW (X86)\MICROSOFT VISUAL STUDIO 14.0\VC\INCLUDE\CSTDDEF
E:\PLIKI PROGRAMóW (X86)\MICROSOFT VISUAL STUDIO 14.0\VC\INCLUDE\INITIALIZER_LIST
C:\PROGRAM FILES (X86)\WINDOWS KITS\10\INCLUDE\10.0.10150.0\UCRT\MALLOC.H
E:\PLIKI PROGRAMóW (X86)\MICROSOFT VISUAL STUDIO 14.0\VC\INCLUDE\VCRUNTIME_EXCEPTION.H
E:\PLIKI PROGRAMóW (X86)\MICROSOFT VISUAL STUDIO 14.0\VC\INCLUDE\EH.H
C:\PROGRAM FILES (X86)\WINDOWS KITS\10\INCLUDE\10.0.10150.0\UCRT\CORECRT_TERMINATE.H
E:\PLIKI PROGRAMóW (X86)\MICROSOFT VISUAL STUDIO 14.0\VC\INCLUDE\XSTRING
E:\PLIKI PROGRAMóW (X86)\MICROSOFT VISUAL STUDIO 14.0\VC\INCLUDE\XMEMORY0
E:\PLIKI PROGRAMóW (X86)\MICROSOFT VISUAL STUDIO 14.0\VC\INCLUDE\CSTDINT
E:\PLIKI PROGRAMóW (X86)\MICROSOFT VISUAL STUDIO 14.0\VC\INCLUDE\STDINT.H
E:\PLIKI PROGRAMóW (X86)\MICROSOFT VISUAL STUDIO 14.0\VC\INCLUDE\LIMITS
E:\PLIKI PROGRAMóW (X86)\MICROSOFT VISUAL STUDIO 14.0\VC\INCLUDE\YMATH.H
E:\PLIKI PROGRAMóW (X86)\MICROSOFT VISUAL STUDIO 14.0\VC\INCLUDE\CFLOAT
C:\PROGRAM FILES (X86)\WINDOWS KITS\10\INCLUDE\10.0.10150.0\UCRT\FLOAT.H
E:\PLIKI PROGRAMóW (X86)\MICROSOFT VISUAL STUDIO 14.0\VC\INCLUDE\CWCHAR
E:\PLIKI PROGRAMóW (X86)\MICROSOFT VISUAL STUDIO 14.0\VC\INCLUDE\NEW
E:\PLIKI PROGRAMóW (X86)\MICROSOFT VISUAL STUDIO 14.0\VC\INCLUDE\VCRUNTIME_NEW.H
E:\PLIKI PROGRAMóW (X86)\MICROSOFT VISUAL STUDIO 14.0\VC\INCLUDE\XUTILITY
E:\PLIKI PROGRAMóW (X86)\MICROSOFT VISUAL STUDIO 14.0\VC\INCLUDE\UTILITY
E:\PLIKI PROGRAMóW (X86)\MICROSOFT VISUAL STUDIO 14.0\VC\INCLUDE\IOSFWD
C:\PROGRAM FILES (X86)\WINDOWS KITS\10\INCLUDE\10.0.10150.0\UCRT\CRTDBG.H
E:\PLIKI PROGRAMóW (X86)\MICROSOFT VISUAL STUDIO 14.0\VC\INCLUDE\VCRUNTIME_NEW_DEBUG.H
E:\PLIKI PROGRAMóW (X86)\MICROSOFT VISUAL STUDIO 14.0\VC\INCLUDE\XATOMIC0.H
E:\PLIKI PROGRAMóW (X86)\MICROSOFT VISUAL STUDIO 14.0\VC\INCLUDE\INTRIN.H
E:\PLIKI PROGRAMóW (X86)\MICROSOFT VISUAL STUDIO 14.0\VC\INCLUDE\SETJMP.H
E:\PLIKI PROGRAMóW (X86)\MICROSOFT VISUAL STUDIO 14.0\VC\INCLUDE\IMMINTRIN.H
E:\PLIKI PROGRAMóW (X86)\MICROSOFT VISUAL STUDIO 14.0\VC\INCLUDE\WMMINTRIN.H
E:\PLIKI PROGRAMóW (X86)\MICROSOFT VISUAL STUDIO 14.0\VC\INCLUDE\NMMINTRIN.H
E:\PLIKI PROGRAMóW (X86)\MICROSOFT VISUAL STUDIO 14.0\VC\INCLUDE\SMMINTRIN.H
E:\PLIKI PROGRAMóW (X86)\MICROSOFT VISUAL STUDIO 14.0\VC\INCLUDE\TMMINTRIN.H
E:\PLIKI PROGRAMóW (X86)\MICROSOFT VISUAL STUDIO 14.0\VC\INCLUDE\PMMINTRIN.H
E:\PLIKI PROGRAMóW (X86)\MICROSOFT VISUAL STUDIO 14.0\VC\INCLUDE\EMMINTRIN.H
E:\PLIKI PROGRAMóW (X86)\MICROSOFT VISUAL STUDIO 14.0\VC\INCLUDE\XMMINTRIN.H
E:\PLIKI PROGRAMóW (X86)\MICROSOFT VISUAL STUDIO 14.0\VC\INCLUDE\MMINTRIN.H
E:\PLIKI PROGRAMóW (X86)\MICROSOFT VISUAL STUDIO 14.0\VC\INCLUDE\AMMINTRIN.H
E:\PLIKI PROGRAMóW (X86)\MICROSOFT VISUAL STUDIO 14.0\VC\INCLUDE\MM3DNOW.H
E:\PLIKI PROGRAMóW (X86)\MICROSOFT VISUAL STUDIO 14.0\VC\INCLUDE\TYPEINFO
E:\PLIKI PROGRAMóW (X86)\MICROSOFT VISUAL STUDIO 14.0\VC\INCLUDE\VCRUNTIME_TYPEINFO.H
E:\PLIKI PROGRAMóW (X86)\MICROSOFT VISUAL STUDIO 14.0\VC\INCLUDE\XLOCINFO
E:\PLIKI PROGRAMóW (X86)\MICROSOFT VISUAL STUDIO 14.0\VC\INCLUDE\XLOCINFO.H
C:\PROGRAM FILES (X86)\WINDOWS KITS\10\INCLUDE\10.0.10150.0\UCRT\CTYPE.H
C:\PROGRAM FILES (X86)\WINDOWS KITS\10\INCLUDE\10.0.10150.0\UCRT\LOCALE.H
E:\PLIKI PROGRAMóW (X86)\MICROSOFT VISUAL STUDIO 14.0\VC\INCLUDE\XFACET
E:\PLIKI PROGRAMóW (X86)\MICROSOFT VISUAL STUDIO 14.0\VC\INCLUDE\SYSTEM_ERROR
E:\PLIKI PROGRAMóW (X86)\MICROSOFT VISUAL STUDIO 14.0\VC\INCLUDE\CERRNO
C:\PROGRAM FILES (X86)\WINDOWS KITS\10\INCLUDE\10.0.10150.0\UCRT\SHARE.H
