﻿Build started 2015-07-21 21:22:31.
     1>Project "E:\GitHub\Cpp\MM22\MM22\MM22.vcxproj" on node 2 (Build target(s)).
     1>ClCompile:
         E:\Pliki programów (x86)\Microsoft Visual Studio 14.0\VC\bin\CL.exe /c /ZI /nologo /W3 /WX- /sdl /Od /Oy- /D WIN32 /D _DEBUG /D _CONSOLE /D _UNICODE /D UNICODE /Gm /EHsc /RTC1 /MDd /GS /fp:precise /Zc:wchar_t /Zc:forScope /Zc:inline /Fo"Debug\\" /Fd"Debug\vc140.pdb" /Gd /TP /analyze- /errorReport:prompt main.cpp
         main.cpp
       Link:
         E:\Pliki programów (x86)\Microsoft Visual Studio 14.0\VC\bin\link.exe /ERRORREPORT:PROMPT /OUT:"E:\GitHub\Cpp\MM22\MM22\MM22\Debug\MM22.exe" /INCREMENTAL /NOLOGO kernel32.lib user32.lib gdi32.lib winspool.lib comdlg32.lib advapi32.lib shell32.lib ole32.lib oleaut32.lib uuid.lib odbc32.lib odbccp32.lib /MANIFEST /MANIFESTUAC:"level='asInvoker' uiAccess='false'" /manifest:embed /Debug /PDB:"E:\GitHub\Cpp\MM22\MM22\MM22\Debug\MM22.pdb" /SUBSYSTEM:CONSOLE /TLBID:1 /DYNAMICBASE /NXCOMPAT /IMPLIB:"E:\GitHub\Cpp\MM22\MM22\MM22\Debug\MM22.lib" /MACHINE:X86 Debug\main.obj
         MM22.vcxproj -> E:\GitHub\Cpp\MM22\MM22\MM22\Debug\MM22.exe
     1>Done Building Project "E:\GitHub\Cpp\MM22\MM22\MM22.vcxproj" (Build target(s)).

Build succeeded.

Time Elapsed 00:00:00.77
